…
source(here("R", "support_functions_OCaR2.R"))
source(here("R", "support_functions_transcriptutorial.R"))
source(here("R", "colour_scheme.R"))
```

## Data

``` r
# Filtered & VSN normalised counts
counts_vsn <- read_rds(here("Data", "data_processed", "counts.OCaR-IsoT_filtered_&_normalised.rds"))
counts_vsn
```

    ## # A tibble: 13,210 × 18
    ##    ensembl   gene  WT_saline_R1 WT_saline_R2 WT_saline_R3 WT_saline_R4 WT_iso_R1
    ##    <chr>     <chr>        <dbl>        <dbl>        <dbl>        <dbl>     <dbl>
    ##  1 ENSMUSG0… Gnai3         9.30         9.30         9.40         9.34      9.63
    ##  2 ENSMUSG0… Cdc45         7.45         7.17         7.22         7.29      7.51
    ##  3 ENSMUSG0… H19          10.2          9.72         9.85         9.84     10.2 
    ##  4 ENSMUSG0… Narf         11.6         11.7         11.7         11.6      11.7 
    ##  5 ENSMUSG0… Cav2          9.64         9.74         9.68         9.59      9.95
    ##  6 ENSMUSG0… Klf6         11.1         11.2         11.2         11.4      11.8 
    ##  7 ENSMUSG0… Scmh1        10.1         10.0          9.89         9.97      9.90
    ##  8 ENSMUSG0… Cox5a        12.9         13.1         13.1         13.2      12.6 
    ##  9 ENSMUSG0… Tbx2          8.59         8.68         8.72         8.95      8.97
    ## 10 ENSMUSG0… Wnt9a         7.61         7.82         7.79         7.72      7.53
    ## # … with 13,200 more rows, and 11 more variables: WT_iso_R2 <dbl>,
    ## #   WT_iso_R3 <dbl>, WT_iso_R4 <dbl>, KO_saline_R1 <dbl>, KO_saline_R2 <dbl>,
    ## #   KO_saline_R3 <dbl>, KO_saline_R4 <dbl>, KO_iso_R1 <dbl>, KO_iso_R2 <dbl>,
    ## #   KO_iso_R3 <dbl>, KO_iso_R4 <dbl>
…
